EESchema Schematic File Version 5
LIBS:openfc-cache
EELAYER 29 0
EELAYER END
$Descr User 11693 10265
encoding utf-8
Sheet 1 1
Title ""
Date ""
Rev ""
Comp ""
Comment1 ""
Comment2 ""
Comment3 ""
Comment4 ""
$EndDescr
Wire Wire Line
	2000 3600 1400 3600
Wire Wire Line
	1800 3500 1400 3500
Wire Wire Line
	2300 2900 2500 2900
Wire Wire Line
	2500 2900 2500 3000
Wire Wire Line
	2500 3000 2500 3100
Wire Wire Line
	2500 3100 2500 3200
Wire Wire Line
	2500 3200 2500 3300
Wire Wire Line
	2500 3300 2500 3500
Wire Wire Line
	2500 3500 2500 3600
Wire Wire Line
	2500 3600 2500 4300
Wire Wire Line
	2300 3100 2500 3100
Wire Wire Line
	2100 3000 2500 3000
Wire Wire Line
	2100 3200 2500 3200
Wire Wire Line
	2300 3300 2500 3300
Wire Wire Line
	2100 3500 2500 3500
Wire Wire Line
	2300 3600 2500 3600
Connection ~ 2500 3000
Connection ~ 2500 3100
Connection ~ 2500 3200
Connection ~ 2500 3300
Connection ~ 2500 3500
Connection ~ 2500 3600
Text Label 2300 2900 0    10   ~ 0
GND
Wire Wire Line
	1400 3800 2200 3800
Wire Wire Line
	2200 3800 2200 4300
Text Label 1400 3800 0    10   ~ 0
GND
Wire Wire Line
	1400 3900 1900 3900
Wire Wire Line
	1900 3900 1900 4300
Text Label 1400 3900 0    10   ~ 0
GND
Wire Wire Line
	1400 4000 1600 4000
Wire Wire Line
	1600 4000 1600 4300
Text Label 1400 4000 0    10   ~ 0
GND
Wire Wire Line
	2500 2100 2500 2300
Wire Wire Line
	2500 2300 2500 2450
Wire Wire Line
	2200 1900 2500 1900
Wire Wire Line
	2500 1900 2500 2100
Connection ~ 2500 2300
Connection ~ 2500 2100
Connection ~ 2500 1900
Text Label 2500 2100 0    10   ~ 0
GND
Wire Wire Line
	4400 3500 4400 3400
Wire Wire Line
	4400 3400 4400 3200
Wire Wire Line
	4900 3400 4800 3400
Wire Wire Line
	4800 3400 4700 3400
Wire Wire Line
	4700 3400 4600 3400
Wire Wire Line
	4600 3400 4400 3400
Connection ~ 4400 3400
Connection ~ 4600 3400
Connection ~ 4700 3400
Connection ~ 4800 3400
Text Label 4400 3500 0    10   ~ 0
GND
Wire Wire Line
	8100 2400 7100 2400
Text Label 7100 2400 0    70   ~ 0
GND
Wire Wire Line
	8000 6300 8000 6500
Wire Wire Line
	8000 6300 8200 6300
Connection ~ 8000 6300
Text Label 8000 6300 0    10   ~ 0
GND
Wire Wire Line
	9200 6400 9200 6500
Wire Wire Line
	9200 6700 9200 6500
Wire Wire Line
	9200 6500 9500 6500
Wire Wire Line
	9500 6400 9200 6400
Wire Wire Line
	9200 6500 9000 6500
Wire Wire Line
	9000 6500 9000 6400
Wire Wire Line
	9200 6400 9200 6200
Wire Wire Line
	9200 6200 9500 6200
Connection ~ 9200 6500
Connection ~ 9200 6400
Text Label 9200 6400 0    10   ~ 0
GND
Wire Wire Line
	9400 5200 9400 5100
Wire Wire Line
	9400 5100 9500 5100
Text Label 9400 5200 0    10   ~ 0
GND
Wire Wire Line
	8100 2500 7100 2500
Text Label 7100 2500 0    70   ~ 0
GND
Wire Wire Line
	6400 1300 6200 1300
Wire Wire Line
	6200 1300 6200 1400
Text Label 6400 1300 0    10   ~ 0
GND
Wire Wire Line
	5000 1300 4800 1300
Wire Wire Line
	4800 1300 4800 1400
Text Label 5000 1300 0    10   ~ 0
GND
Wire Wire Line
	2200 7200 2200 7100
Wire Wire Line
	1800 6800 1800 6500
Wire Wire Line
	1800 6500 1800 6200
Wire Wire Line
	1800 6200 1800 5900
Wire Wire Line
	1800 5900 1800 5600
Wire Wire Line
	1800 5600 1800 5300
Wire Wire Line
	1800 5300 1800 5000
Wire Wire Line
	1800 5000 1800 4700
Wire Wire Line
	1800 6800 1800 7100
Wire Wire Line
	2200 7100 1800 7100
Connection ~ 1800 6500
Connection ~ 1800 6200
Connection ~ 1800 5900
Connection ~ 1800 5600
Connection ~ 1800 5300
Connection ~ 1800 5000
Connection ~ 1800 6800
Connection ~ 1800 7100
Text Label 2200 7200 0    10   ~ 0
GND
Wire Wire Line
	9700 8000 9700 8100
Wire Wire Line
	9200 8000 9700 8000
Connection ~ 9700 8000
Text Label 9700 8000 0    10   ~ 0
GND
Wire Wire Line
	7500 1400 7500 1300
Wire Wire Line
	7500 1300 7700 1300
Text Label 7500 1400 0    10   ~ 0
GND
Wire Wire Line
	10400 3400 10400 3800
Wire Wire Line
	10400 3800 10400 4200
Wire Wire Line
	10400 4200 10400 4500
Wire Wire Line
	10400 3000 10400 3400
Connection ~ 10400 3800
Connection ~ 10400 4200
Connection ~ 10400 3400
Text Label 10400 3400 0    10   ~ 0
GND
Wire Wire Line
	1800 7800 1800 7900
Text Label 1800 7800 0    10   ~ 0
GND
Wire Wire Line
	5400 6000 5000 6000
Wire Wire Line
	5000 6000 5000 6200
Text Label 5400 6000 0    10   ~ 0
GND
Wire Wire Line
	3700 8600 3600 8600
Wire Wire Line
	3600 8600 3600 8700
Wire Wire Line
	3600 8700 3600 9200
Wire Wire Line
	4100 8700 3600 8700
Connection ~ 3600 8700
Text Label 3700 8600 0    10   ~ 0
GND
Wire Wire Line
	5800 9200 5800 9100
Text Label 5800 9200 0    10   ~ 0
GND
Wire Wire Line
	9300 8900 8600 8900
Text Label 9300 8900 0    10   ~ 0
GND
Wire Wire Line
	4700 5800 4700 6000
Text Label 4700 5800 0    10   ~ 0
GND
Wire Wire Line
	6600 4500 6600 3900
Wire Wire Line
	6600 4800 6600 4500
Connection ~ 6600 4500
Text Label 6800 4500 0    10   ~ 0
GND
Wire Wire Line
	6400 3300 6400 3400
Text Label 6400 3300 0    10   ~ 0
GND
Wire Wire Line
	1400 2100 1900 2100
Wire Wire Line
	1900 2100 2100 2100
Wire Wire Line
	2100 2100 2200 2100
Wire Wire Line
	1900 2200 1900 2100
Connection ~ 2100 2100
Connection ~ 1900 2100
Wire Wire Line
	2200 2300 2100 2300
Wire Wire Line
	2100 2300 1500 2300
Wire Wire Line
	1500 2300 1500 2200
Wire Wire Line
	1500 2200 1400 2200
Connection ~ 2100 2300
Connection ~ 1500 2200
Wire Wire Line
	4300 5800 3300 5800
Text Label 4200 5800 2    70   ~ 0
BOOT1
Wire Wire Line
	3550 2900 3300 2900
Wire Wire Line
	3550 3000 3300 3000
Wire Wire Line
	3950 2900 4400 2900
Wire Wire Line
	3950 3000 4400 3000
Wire Wire Line
	1400 1900 1700 1900
Wire Wire Line
	1700 1900 1800 1900
Wire Wire Line
	1700 1900 1700 1400
Wire Wire Line
	1700 1400 2500 1400
Connection ~ 1700 1900
Wire Wire Line
	1700 2900 1400 2900
Wire Wire Line
	1700 2700 1700 2800
Wire Wire Line
	1700 2800 1700 2900
Wire Wire Line
	1800 3000 1700 3000
Wire Wire Line
	1700 3000 1400 3000
Wire Wire Line
	1700 2900 1700 3000
Wire Wire Line
	2000 3100 1700 3100
Wire Wire Line
	1700 3100 1400 3100
Wire Wire Line
	1700 3000 1700 3100
Wire Wire Line
	1800 3200 1700 3200
Wire Wire Line
	1700 3200 1400 3200
Wire Wire Line
	1700 3100 1700 3200
Wire Wire Line
	2000 3300 1700 3300
Wire Wire Line
	1700 3300 1400 3300
Wire Wire Line
	1700 3200 1700 3300
Wire Wire Line
	1400 2800 1700 2800
Connection ~ 1700 2900
Connection ~ 1700 3000
Connection ~ 1700 3100
Connection ~ 1700 3200
Connection ~ 1700 3300
Connection ~ 1700 2800
Text Label 2000 2900 0    10   ~ 0
+3V3
Wire Wire Line
	8100 2000 7100 2000
Text Label 7100 2000 0    70   ~ 0
+3V3
Wire Wire Line
	8000 5500 8000 5700
Wire Wire Line
	8000 5900 8000 5700
Wire Wire Line
	8000 6100 8000 5900
Wire Wire Line
	8000 5700 8200 5700
Wire Wire Line
	8200 5700 8200 6000
Connection ~ 8000 5700
Connection ~ 8000 5900
Text Label 8000 5500 0    10   ~ 0
+3V3
Wire Wire Line
	9200 6100 9200 4800
Wire Wire Line
	9200 6100 9000 6100
Wire Wire Line
	9500 6100 9200 6100
Connection ~ 9200 6100
Text Label 9200 6100 0    10   ~ 0
+3V3
Wire Wire Line
	2500 1200 2100 1200
Wire Wire Line
	2100 1200 2100 1100
Text Label 2500 1200 0    10   ~ 0
+3V3
Wire Wire Line
	5000 1000 4800 1000
Wire Wire Line
	4800 1000 4800 800 
Text Label 5000 1000 0    10   ~ 0
+3V3
Wire Wire Line
	10000 7700 10200 7700
Wire Wire Line
	10600 7700 10200 7700
Wire Wire Line
	10600 7700 10600 7600
Connection ~ 10200 7700
Text Label 10000 7700 0    10   ~ 0
+3V3
Wire Wire Line
	7700 1000 7500 1000
Wire Wire Line
	7500 1000 7500 800 
Text Label 7700 1000 0    10   ~ 0
+3V3
Wire Wire Line
	9700 3000 9200 3000
Text Label 9700 3000 0    10   ~ 0
+3V3
Wire Wire Line
	5400 5800 5000 5800
Wire Wire Line
	5000 5800 5000 5600
Text Label 5400 5800 0    10   ~ 0
+3V3
Wire Wire Line
	6500 4200 6500 4600
Wire Wire Line
	2700 8000 2700 8100
Text Label 2700 8000 0    10   ~ 0
+3V3
Wire Wire Line
	3300 4000 4200 4000
Text Label 4200 4000 2    70   ~ 0
MPU_INT
Wire Wire Line
	10500 2100 9500 2100
Text Label 10500 2100 2    70   ~ 0
MPU_INT
Wire Wire Line
	3300 5100 4200 5100
Text Label 4200 5100 2    70   ~ 0
MPU_CS
Wire Wire Line
	10500 2000 9500 2000
Text Label 10500 2000 2    70   ~ 0
MPU_CS
Wire Wire Line
	3300 2600 4200 2600
Text Label 4200 2600 2    70   ~ 0
BARO_CS
Wire Wire Line
	10500 2200 9500 2200
Text Label 10500 2200 2    70   ~ 0
BARO_CS
Wire Wire Line
	3300 2300 4200 2300
Wire Wire Line
	4500 4000 5400 4000
Text Label 4200 2300 2    70   ~ 0
SPI1_SCLK
Text Label 4500 4000 0    70   ~ 0
SPI1_SCLK
Wire Wire Line
	3300 2400 4200 2400
Wire Wire Line
	4500 4200 5400 4200
Text Label 4200 2400 2    70   ~ 0
SPI1_MISO
Text Label 4500 4200 0    70   ~ 0
SPI1_MISO
Wire Wire Line
	3300 2500 4200 2500
Wire Wire Line
	4500 4400 5400 4400
Text Label 4200 2500 2    70   ~ 0
SPI1_MOSI
Text Label 4500 4400 0    70   ~ 0
SPI1_MOSI
Wire Wire Line
	3300 5900 4200 5900
Text Label 4200 5900 2    70   ~ 0
SPI3_SCLK
Wire Wire Line
	7000 6300 6000 6300
Text Label 6000 6300 0    70   ~ 0
SPI3_SCLK
Wire Wire Line
	8100 2300 7100 2300
Text Label 7100 2300 0    70   ~ 0
SPI3_SCLK
Wire Wire Line
	3300 6000 4200 6000
Text Label 4200 6000 2    70   ~ 0
SPI3_MISO
Wire Wire Line
	7000 5900 6000 5900
Text Label 6000 5900 0    70   ~ 0
SPI3_MISO
Wire Wire Line
	8100 2200 7100 2200
Text Label 7100 2200 0    70   ~ 0
SPI3_MISO
Wire Wire Line
	3300 6100 4200 6100
Text Label 4200 6100 2    70   ~ 0
SPI3_MOSI
Wire Wire Line
	7000 6100 6000 6100
Text Label 6000 6100 0    70   ~ 0
SPI3_MOSI
Wire Wire Line
	8100 2100 7100 2100
Text Label 7100 2100 0    70   ~ 0
SPI3_MOSI
Wire Wire Line
	3300 5200 4200 5200
Wire Wire Line
	6000 5700 7000 5700
Text Label 4200 5200 2    70   ~ 0
EEPROM_CS
Text Label 6000 5700 0    70   ~ 0
EEPROM_CS
Wire Wire Line
	3300 2000 4200 2000
Text Label 4200 2000 2    70   ~ 0
MAG_INT
Wire Wire Line
	10500 2500 9500 2500
Text Label 10500 2500 2    70   ~ 0
MAG_INT
Wire Wire Line
	3300 5000 4200 5000
Text Label 4200 5000 2    70   ~ 0
MAG_CS
Wire Wire Line
	10500 2400 9500 2400
Text Label 10500 2400 2    70   ~ 0
MAG_CS
Wire Wire Line
	3300 2800 4200 2800
Wire Wire Line
	5700 1200 6400 1200
Text Label 4200 2800 2    70   ~ 0
COM1_RX
Text Label 5700 1200 0    70   ~ 0
COM1_RX
Wire Wire Line
	3300 2700 4200 2700
Wire Wire Line
	5700 1100 6400 1100
Text Label 4200 2700 2    70   ~ 0
COM1_TX
Text Label 5700 1100 0    70   ~ 0
COM1_TX
Wire Wire Line
	3200 8300 3200 7500
Text Label 3200 8300 1    70   ~ 0
SER3_RX
Wire Wire Line
	3300 6700 4200 6700
Text Label 4200 6700 2    70   ~ 0
SER3_RX
Wire Wire Line
	3300 1800 4200 1800
Wire Wire Line
	4300 1100 5000 1100
Text Label 4200 1800 2    70   ~ 0
GPS_TX
Text Label 4300 1100 0    70   ~ 0
GPS_TX
Wire Wire Line
	3300 1900 4200 1900
Wire Wire Line
	4300 1200 5000 1200
Text Label 4200 1900 2    70   ~ 0
GPS_RX
Text Label 4300 1200 0    70   ~ 0
GPS_RX
Wire Wire Line
	3300 4300 4200 4300
Text Label 4200 4300 2    70   ~ 0
SER6_TX+PWM7
Wire Wire Line
	1600 6500 800  6500
Wire Wire Line
	1600 6500 1600 6600
Wire Wire Line
	1600 6600 2300 6600
Wire Wire Line
	2300 6600 2300 6800
Text Label 800  6500 0    70   ~ 0
SER6_TX+PWM7
Connection ~ 1600 6500
Wire Wire Line
	3300 4400 4200 4400
Text Label 4200 4400 2    70   ~ 0
SER6_RX+PWM8
Wire Wire Line
	1600 6800 800  6800
Text Label 800  6800 0    70   ~ 0
SER6_RX+PWM8
Wire Wire Line
	3300 6800 4200 6800
Text Label 4200 6800 2    70   ~ 0
CAN_RX
Text Label 6000 4700 0    70   ~ 0
CAN_RX
Wire Wire Line
	3300 6900 4200 6900
Text Label 4200 6900 2    70   ~ 0
CAN_TX
Text Label 6000 4400 0    70   ~ 0
CAN_TX
Wire Wire Line
	3300 3900 4200 3900
Text Label 4200 3900 2    70   ~ 0
GPS_LED
Wire Wire Line
	9700 3400 9200 3400
Text Label 9200 3400 0    70   ~ 0
GPS_LED
Wire Wire Line
	3300 5600 4200 5600
Text Label 4200 5600 2    70   ~ 0
PWM1
Wire Wire Line
	1600 4700 800  4700
Text Label 800  4700 0    70   ~ 0
PWM1
Wire Wire Line
	3300 5700 4200 5700
Text Label 4200 5700 2    70   ~ 0
PWM2
Wire Wire Line
	1600 5000 800  5000
Text Label 800  5000 0    70   ~ 0
PWM2
Wire Wire Line
	3300 6400 4200 6400
Text Label 4200 6400 2    70   ~ 0
PWM3
Wire Wire Line
	1600 5300 800  5300
Text Label 800  5300 0    70   ~ 0
PWM3
Wire Wire Line
	3300 6500 4200 6500
Text Label 4200 6500 2    70   ~ 0
PWM4
Wire Wire Line
	1600 5600 800  5600
Text Label 800  5600 0    70   ~ 0
PWM4
Wire Wire Line
	3300 6200 4200 6200
Text Label 4200 6200 2    70   ~ 0
PWM5
Wire Wire Line
	1600 5900 800  5900
Text Label 800  5900 0    70   ~ 0
PWM5
Wire Wire Line
	3300 6300 4200 6300
Text Label 4200 6300 2    70   ~ 0
PWM6
Wire Wire Line
	1600 6200 800  6200
Text Label 800  6200 0    70   ~ 0
PWM6
Wire Wire Line
	3300 2200 4200 2200
Wire Wire Line
	8600 5000 9500 5000
Text Label 4200 2200 2    70   ~ 0
SDIO_DETECT
Text Label 8600 5000 0    70   ~ 0
SDIO_DETECT
Wire Wire Line
	10500 2300 9500 2300
Text Label 10500 2300 2    70   ~ 0
BARO_INT
Wire Wire Line
	7300 1200 7700 1200
Text Label 8400 4500 2    70   ~ 0
CAN_P
Text Label 7300 1200 0    70   ~ 0
CAN_P
Wire Wire Line
	7300 1100 7700 1100
Text Label 8400 4600 2    70   ~ 0
CAN_N
Text Label 7300 1100 0    70   ~ 0
CAN_N
Wire Wire Line
	1400 2400 2200 2400
Wire Wire Line
	8600 5500 9500 5500
Text Label 2200 2400 2    70   ~ 0
SDIO_CMD
Text Label 8600 5500 0    70   ~ 0
SDIO_CMD
Wire Wire Line
	3300 4900 4200 4900
Wire Wire Line
	8600 5600 9500 5600
Text Label 4200 4900 2    70   ~ 0
SDIO_CK
Text Label 8600 5600 0    70   ~ 0
SDIO_CK
Wire Wire Line
	3300 4800 4200 4800
Wire Wire Line
	8600 5700 9500 5700
Text Label 4200 4800 2    70   ~ 0
SDIO_D3
Text Label 8600 5700 0    70   ~ 0
SDIO_D3
Wire Wire Line
	3300 4700 4200 4700
Wire Wire Line
	8600 5900 9500 5900
Text Label 4200 4700 2    70   ~ 0
SDIO_D2
Text Label 8600 5900 0    70   ~ 0
SDIO_D2
Wire Wire Line
	3300 4600 4200 4600
Wire Wire Line
	8600 5800 9500 5800
Text Label 4200 4600 2    70   ~ 0
SDIO_D1
Text Label 8600 5800 0    70   ~ 0
SDIO_D1
Wire Wire Line
	3300 4500 4200 4500
Wire Wire Line
	8600 5400 9500 5400
Text Label 4200 4500 2    70   ~ 0
SDIO_D0
Text Label 8600 5400 0    70   ~ 0
SDIO_D0
Wire Wire Line
	3300 2100 4200 2100
Text Label 4200 2100 2    70   ~ 0
PPM
Wire Wire Line
	1600 7100 800  7100
Text Label 800  7100 0    70   ~ 0
PPM
Wire Wire Line
	5700 1000 6400 1000
Text Label 5700 1000 0    70   ~ 0
+5V
Wire Wire Line
	9400 7700 9200 7700
Wire Wire Line
	9200 7700 8300 7700
Text Label 8300 7700 0    70   ~ 0
+5V
Connection ~ 9200 7700
Wire Wire Line
	1700 7100 1700 7400
Wire Wire Line
	1700 7400 1700 7800
Wire Wire Line
	1700 7400 800  7400
Text Label 800  7400 0    70   ~ 0
+5V
Connection ~ 1700 7400
Wire Wire Line
	5800 7600 5800 8600
Wire Wire Line
	5800 8600 5800 8800
Wire Wire Line
	5100 7600 5400 7600
Wire Wire Line
	5400 7600 5800 7600
Wire Wire Line
	5400 7600 5400 7900
Wire Wire Line
	7000 8600 5800 8600
Connection ~ 5400 7600
Connection ~ 5800 8600
Text Label 6800 8600 0    70   ~ 0
+5V
Wire Wire Line
	9000 7400 9500 7400
Wire Wire Line
	4900 6500 5400 6500
Text Label 9500 7400 2    70   ~ 0
+5V
Text Label 4900 6500 0    70   ~ 0
+5V
Wire Wire Line
	3300 3300 4200 3300
Text Label 4200 3300 2    70   ~ 0
RDY_LED
Wire Wire Line
	9200 3800 9700 3800
Text Label 9200 3800 0    70   ~ 0
RDY_LED
Wire Wire Line
	3300 7100 4200 7100
Text Label 4200 7100 2    70   ~ 0
DB_LED
Wire Wire Line
	9700 4200 9200 4200
Text Label 9200 4200 0    70   ~ 0
DB_LED
Wire Wire Line
	3300 3700 4200 3700
Wire Wire Line
	5900 3000 6400 3000
Wire Wire Line
	6400 3000 6800 3000
Text Label 4200 3700 2    70   ~ 0
ADC_VIN
Connection ~ 6800 3000
Text Label 5900 3000 0    70   ~ 0
ADC_VIN
Connection ~ 6400 3000
Wire Wire Line
	3300 3800 4200 3800
Wire Wire Line
	4500 5400 5400 5400
Text Label 4200 3800 2    70   ~ 0
ADC_EXT_V
Text Label 4500 5400 0    70   ~ 0
ADC_EXT_V
Wire Wire Line
	4400 2800 4400 2300
Wire Wire Line
	4400 2300 5000 2300
Text Label 5000 2300 2    70   ~ 0
USB_+5V
Wire Wire Line
	8800 7400 8300 7400
Text Label 8300 7400 0    70   ~ 0
USB_+5V
Wire Wire Line
	3300 4100 4200 4100
Wire Wire Line
	4500 4600 5400 4600
Text Label 4200 4100 2    70   ~ 0
O1
Text Label 4500 4600 0    70   ~ 0
O1
Wire Wire Line
	3300 4200 4200 4200
Wire Wire Line
	4500 4800 5400 4800
Text Label 4200 4200 2    70   ~ 0
O2
Text Label 4500 4800 0    70   ~ 0
O2
Wire Wire Line
	1400 1800 1500 1800
Wire Wire Line
	1500 1800 1500 1600
Wire Wire Line
	1500 1600 1500 1500
Wire Wire Line
	2500 1600 1500 1600
Connection ~ 1500 1600
Wire Wire Line
	3300 6600 4200 6600
Wire Wire Line
	2300 7500 2300 7800
Wire Wire Line
	2300 7500 1900 7500
Text Label 4200 6600 2    70   ~ 0
SER3_TX
Text Label 1900 7500 0    70   ~ 0
SER3_TX
Wire Wire Line
	6800 8100 6800 8000
Text Label 6800 8100 0    70   ~ 0
LIPO+
Wire Wire Line
	7200 3000 7600 3000
Text Label 7600 3000 2    70   ~ 0
LIPO+
Wire Wire Line
	9300 8600 8600 8600
Text Label 8600 8600 0    70   ~ 0
LIPO+
Wire Wire Line
	4100 8600 4000 8600
Wire Wire Line
	4100 8500 4000 8500
Wire Wire Line
	4000 8500 4000 7600
Wire Wire Line
	4000 7600 4500 7600
Wire Wire Line
	4500 7600 4500 7700
Connection ~ 4500 7600
Wire Wire Line
	5400 8800 5400 8700
Wire Wire Line
	5400 8700 5400 8300
Wire Wire Line
	4900 8700 5400 8700
Connection ~ 5400 8700
Wire Wire Line
	4100 8400 4100 8300
Wire Wire Line
	5100 8300 5100 8400
Wire Wire Line
	5100 8400 5100 8500
Wire Wire Line
	5100 8500 4900 8500
Wire Wire Line
	4900 8400 5100 8400
Wire Wire Line
	4100 8300 5100 8300
Connection ~ 5100 8400
Connection ~ 5100 8300
Wire Wire Line
	6800 7600 6800 7800
Text Label 6800 7600 0    10   ~ 0
VCC_IN
Wire Wire Line
	5300 8500 5300 8600
Wire Wire Line
	5300 8600 4900 8600
Text Label 4900 8600 0    70   ~ 0
VCC_IN
Wire Wire Line
	6500 7600 6500 7700
Text Label 6500 7600 0    10   ~ 0
VCC_IN
Wire Wire Line
	5100 7900 5100 7800
Text Label 5100 7900 0    10   ~ 0
VCC_IN
Wire Wire Line
	3300 3200 4200 3200
Text Label 4200 3200 2    70   ~ 0
SWCLK
Wire Wire Line
	5100 3500 5600 3500
Text Label 5100 3500 0    70   ~ 0
SWCLK
Wire Wire Line
	5600 3300 5100 3300
Text Label 5100 3300 0    70   ~ 0
SWDIO
Wire Wire Line
	3300 3100 4200 3100
Text Label 4200 3100 2    70   ~ 0
SWDIO
Wire Wire Line
	3100 8300 3100 8500
Wire Wire Line
	3100 8500 2700 8500
Connection ~ 2700 8500
Wire Wire Line
	1600 7800 1600 8700
Wire Wire Line
	1600 8700 2100 8700
Wire Wire Line
	3300 8300 3300 9200
Wire Wire Line
	3300 9200 2100 9200
Wire Wire Line
	2100 9200 2100 8700
Connection ~ 2100 8700
$Comp
L openfc-eagle-import:STM32F4-64 U1
U 1 1 F9562130
P 1300 4100
F 0 "U1" H 1300 4100 50  0001 C CNN
F 1 "STM32F405RG" H 1300 4100 50  0001 C CNN
F 2 "openfc:SQFP-S-10X10-64" H 1300 4100 50  0001 C CNN
F 3 "https://www.mouser.com/datasheet/2/389/stm32f405rg-956214.pdf" H 1300 4100 50  0001 C CNN
	1    1300 4100
	1    0    0    -1  
$EndComp
$Comp
L openfc-eagle-import:STM32F4-64 U1
U 2 1 F956213C
P 3200 3400
F 0 "U1" H 3200 3400 50  0001 C CNN
F 1 "STM32F405RG" H 3200 3400 50  0001 C CNN
F 2 "openfc:SQFP-S-10X10-64" H 3200 3400 50  0001 C CNN
F 3 "https://www.mouser.com/datasheet/2/389/stm32f405rg-956214.pdf" H 3200 3400 50  0001 C CNN
	2    3200 3400
	1    0    0    -1  
$EndComp
$Comp
L openfc-eagle-import:STM32F4-64 U1
U 3 1 F9562138
P 3200 7200
F 0 "U1" H 3200 7200 50  0001 C CNN
F 1 "STM32F405RG" H 3200 7200 50  0001 C CNN
F 2 "openfc:SQFP-S-10X10-64" H 3200 7200 50  0001 C CNN
F 3 "https://www.mouser.com/datasheet/2/389/stm32f405rg-956214.pdf" H 3200 7200 50  0001 C CNN
	3    3200 7200
	1    0    0    -1  
$EndComp
$Comp
L openfc-eagle-import:STM32F4-64 U1
U 4 1 F9562124
P 3200 5300
F 0 "U1" H 3200 5300 50  0001 C CNN
F 1 "STM32F405RG" H 3200 5300 50  0001 C CNN
F 2 "openfc:SQFP-S-10X10-64" H 3200 5300 50  0001 C CNN
F 3 "https://www.mouser.com/datasheet/2/389/stm32f405rg-956214.pdf" H 3200 5300 50  0001 C CNN
	4    3200 5300
	1    0    0    -1  
$EndComp
$Comp
L openfc-eagle-import:STM32F4-64 U1
U 5 1 F9562120
P 1300 2500
F 0 "U1" H 1300 2500 50  0001 C CNN
F 1 "STM32F405RG" H 1300 2500 50  0001 C CNN
F 2 "openfc:SQFP-S-10X10-64" H 1300 2500 50  0001 C CNN
F 3 "https://www.mouser.com/datasheet/2/389/stm32f405rg-956214.pdf" H 1300 2500 50  0001 C CNN
	5    1300 2500
	1    0    0    -1  
$EndComp
$Comp
L openfc-eagle-import:R-EU_R0603 R2
U 1 1 A4623408
P 3750 2900
F 0 "R2" H 3600 2959 59  0000 L BNN
F 1 "22" H 3600 2770 59  0000 L BNN
F 2 "openfc:R0603" H 3750 2900 50  0001 C CNN
F 3 "" H 3750 2900 50  0001 C CNN
	1    3750 2900
	1    0    0    -1  
$EndComp
$Comp
L openfc-eagle-import:R-EU_R0603 R3
U 1 1 03DCF3C3
P 3750 3000
F 0 "R3" H 3600 3059 59  0000 L BNN
F 1 "22" H 3600 2870 59  0000 L BNN
F 2 "openfc:R0603" H 3750 3000 50  0001 C CNN
F 3 "" H 3750 3000 50  0001 C CNN
	1    3750 3000
	1    0    0    -1  
$EndComp
$Comp
L openfc-eagle-import:R-EU_R0603 R4
U 1 1 98DC0D12
P 2000 1900
F 0 "R4" H 1850 1959 59  0000 L BNN
F 1 "10k" H 1850 1770 59  0000 L BNN
F 2 "openfc:R0603" H 2000 1900 50  0001 C CNN
F 3 "" H 2000 1900 50  0001 C CNN
	1    2000 1900
	1    0    0    -1  
$EndComp
$Comp
L openfc-eagle-import:R-EU_R0603 R5
U 1 1 0764E48A
P 4500 5800
F 0 "R5" H 4350 5859 59  0000 L BNN
F 1 "10k" H 4350 5670 59  0000 L BNN
F 2 "openfc:R0603" H 4500 5800 50  0001 C CNN
F 3 "" H 4500 5800 50  0001 C CNN
	1    4500 5800
	-1   0    0    1   
$EndComp
$Comp
L openfc-eagle-import:C-EUC0603 C1
U 1 1 D28DBE34
P 1900 3500
F 0 "C1" H 1960 3515 59  0000 L BNN
F 1 "2.2u" H 1960 3315 59  0000 L BNN
F 2 "openfc:C0603" H 1900 3500 50  0001 C CNN
F 3 "" H 1900 3500 50  0001 C CNN
	1    1900 3500
	0    -1   -1   0   
$EndComp
$Comp
L openfc-eagle-import:C-EUC0603 C2
U 1 1 9A088017
P 2100 3600
F 0 "C2" H 2160 3615 59  0000 L BNN
F 1 "2.2u" H 2160 3415 59  0000 L BNN
F 2 "openfc:C0603" H 2100 3600 50  0001 C CNN
F 3 "" H 2100 3600 50  0001 C CNN
	1    2100 3600
	0    -1   -1   0   
$EndComp
$Comp
L openfc-eagle-import:C-EUC0603 C3
U 1 1 E8A7D039
P 2300 2100
F 0 "C3" H 2360 2115 59  0000 L BNN
F 1 "27p" H 2360 1915 59  0000 L BNN
F 2 "openfc:C0603" H 2300 2100 50  0001 C CNN
F 3 "" H 2300 2100 50  0001 C CNN
	1    2300 2100
	0    -1   -1   0   
$EndComp
$Comp
L openfc-eagle-import:C-EUC0603 C4
U 1 1 284EA6E9
P 2100 3100
F 0 "C4" H 2160 3115 59  0000 L BNN
F 1 "100n" H 2160 2915 59  0000 L BNN
F 2 "openfc:C0603" H 2100 3100 50  0001 C CNN
F 3 "" H 2100 3100 50  0001 C CNN
	1    2100 3100
	0    -1   -1   0   
$EndComp
$Comp
L openfc-eagle-import:C-EUC0603 C5
U 1 1 F9108C4C
P 2200 2900
F 0 "C5" H 2260 2915 59  0000 L BNN
F 1 "100n" H 2260 2715 59  0000 L BNN
F 2 "openfc:C0603" H 2200 2900 50  0001 C CNN
F 3 "" H 2200 2900 50  0001 C CNN
	1    2200 2900
	0    1    1    0   
$EndComp
$Comp
L openfc-eagle-import:C-EUC0603 C7
U 1 1 B9E0DE35
P 1900 3000
F 0 "C7" H 1960 3015 59  0000 L BNN
F 1 "100n" H 1960 2815 59  0000 L BNN
F 2 "openfc:C0603" H 1900 3000 50  0001 C CNN
F 3 "" H 1900 3000 50  0001 C CNN
	1    1900 3000
	0    -1   -1   0   
$EndComp
$Comp
L openfc-eagle-import:C-EUC0603 C8
U 1 1 621C301E
P 1900 3200
F 0 "C8" H 1960 3215 59  0000 L BNN
F 1 "100n" H 1960 3015 59  0000 L BNN
F 2 "openfc:C0603" H 1900 3200 50  0001 C CNN
F 3 "" H 1900 3200 50  0001 C CNN
	1    1900 3200
	0    -1   -1   0   
$EndComp
$Comp
L openfc-eagle-import:C-EUC0603 C9
U 1 1 27EB63CA
P 2100 3300
F 0 "C9" H 2160 3315 59  0000 L BNN
F 1 "100n" H 2160 3115 59  0000 L BNN
F 2 "openfc:C0603" H 2100 3300 50  0001 C CNN
F 3 "" H 2100 3300 50  0001 C CNN
	1    2100 3300
	0    -1   -1   0   
$EndComp
$Comp
L openfc-eagle-import:C-EUC0603 C10
U 1 1 5DD923AF
P 2300 2300
F 0 "C10" H 2360 2315 59  0000 L BNN
F 1 "27p" H 2360 2115 59  0000 L BNN
F 2 "openfc:C0603" H 2300 2300 50  0001 C CNN
F 3 "" H 2300 2300 50  0001 C CNN
	1    2300 2300
	0    -1   -1   0   
$EndComp
$Comp
L openfc-eagle-import:CRYSTALCTS406 Q1
U 1 1 96FBF2E7
P 2100 2200
F 0 "Q1" H 2200 2240 59  0000 L BNN
F 1 "25mhz" H 2200 2100 59  0000 L BNN
F 2 "openfc:CTS406" H 2100 2200 50  0001 C CNN
F 3 "" H 2100 2200 50  0001 C CNN
F 4 "unknown" H 2200 2100 59  0001 L BNN "OC_FARNELL"
	1    2100 2200
	0    -1   -1   0   
$EndComp
$Comp
L openfc-eagle-import:GND #GND0101
U 1 1 8E097FD0
P 1600 4400
F 0 "#GND0101" H 1600 4400 50  0001 C CNN
F 1 "GND" H 1500 4300 59  0000 L BNN
F 2 "" H 1600 4400 50  0001 C CNN
F 3 "" H 1600 4400 50  0001 C CNN
	1    1600 4400
	1    0    0    -1  
$EndComp
$Comp
L openfc-eagle-import:GND #GND02
U 1 1 13A376EC
P 1900 4400
F 0 "#GND02" H 1900 4400 50  0001 C CNN
F 1 "GND" H 1800 4300 59  0000 L BNN
F 2 "" H 1900 4400 50  0001 C CNN
F 3 "" H 1900 4400 50  0001 C CNN
	1    1900 4400
	1    0    0    -1  
$EndComp
$Comp
L openfc-eagle-import:GND #GND03
U 1 1 7679BDCC
P 2500 4400
F 0 "#GND03" H 2500 4400 50  0001 C CNN
F 1 "GND" H 2400 4300 59  0000 L BNN
F 2 "" H 2500 4400 50  0001 C CNN
F 3 "" H 2500 4400 50  0001 C CNN
	1    2500 4400
	1    0    0    -1  
$EndComp
$Comp
L openfc-eagle-import:GND #GND04
U 1 1 D896219B
P 4400 3600
F 0 "#GND04" H 4400 3600 50  0001 C CNN
F 1 "GND" H 4300 3500 59  0000 L BNN
F 2 "" H 4400 3600 50  0001 C CNN
F 3 "" H 4400 3600 50  0001 C CNN
	1    4400 3600
	1    0    0    -1  
$EndComp
$Comp
L openfc-eagle-import:USB-5P MOLEX_105164-1
U 1 1 3BC92DD2
P 4700 3000
F 0 "MOLEX_105164-1" H 4500 3350 59  0000 L BNN
F 1 "USB-5P" H 4700 2600 59  0000 L BNN
F 2 "openfc:USB-MINI-B" H 4700 3000 50  0001 C CNN
F 3 "" H 4700 3000 50  0001 C CNN
	1    4700 3000
	1    0    0    -1  
$EndComp
$Comp
L openfc-eagle-import:GND #GND08
U 1 1 DF24F9E8
P 2200 4400
F 0 "#GND08" H 2200 4400 50  0001 C CNN
F 1 "GND" H 2100 4300 59  0000 L BNN
F 2 "" H 2200 4400 50  0001 C CNN
F 3 "" H 2200 4400 50  0001 C CNN
	1    2200 4400
	1    0    0    -1  
$EndComp
$Comp
L openfc-eagle-import:GND #GND09
U 1 1 928DF91D
P 2500 2550
F 0 "#GND09" H 2500 2550 50  0001 C CNN
F 1 "GND" H 2400 2450 59  0000 L BNN
F 2 "" H 2500 2550 50  0001 C CNN
F 3 "" H 2500 2550 50  0001 C CNN
	1    2500 2550
	1    0    0    -1  
$EndComp
$Comp
L openfc-eagle-import:+3V3 #+3V01
U 1 1 406B5002
P 1700 2600
F 0 "#+3V01" H 1700 2600 50  0001 C CNN
F 1 "+3V3" V 1600 2400 59  0000 L BNN
F 2 "" H 1700 2600 50  0001 C CNN
F 3 "" H 1700 2600 50  0001 C CNN
	1    1700 2600
	1    0    0    -1  
$EndComp
$Comp
L openfc-eagle-import:AT25FS010 CAT25512VI-GT3
U 1 1 9AAE48B1
P 7500 5900
F 0 "CAT25512VI-GT3" H 7210 6230 59  0000 L BNN
F 1 "AT25FS010" H 7200 5300 59  0000 L BNN
F 2 "openfc:SO08WIDE" H 7500 5900 50  0001 C CNN
F 3 "" H 7500 5900 50  0001 C CNN
	1    7500 5900
	1    0    0    -1  
$EndComp
$Comp
L openfc-eagle-import:GND #GND010
U 1 1 845C69E3
P 6600 4900
F 0 "#GND010" H 6600 4900 50  0001 C CNN
F 1 "GND" H 6500 4800 59  0000 L BNN
F 2 "" H 6600 4900 50  0001 C CNN
F 3 "" H 6600 4900 50  0001 C CNN
	1    6600 4900
	1    0    0    -1  
$EndComp
$Comp
L openfc-eagle-import:GND #GND011
U 1 1 19DA8D48
P 8000 6600
F 0 "#GND011" H 8000 6600 50  0001 C CNN
F 1 "GND" H 7900 6500 59  0000 L BNN
F 2 "" H 8000 6600 50  0001 C CNN
F 3 "" H 8000 6600 50  0001 C CNN
	1    8000 6600
	1    0    0    -1  
$EndComp
$Comp
L openfc-eagle-import:+3V3 #+3V07
U 1 1 A36165E5
P 8000 5400
F 0 "#+3V07" H 8000 5400 50  0001 C CNN
F 1 "+3V3" V 7900 5200 59  0000 L BNN
F 2 "" H 8000 5400 50  0001 C CNN
F 3 "" H 8000 5400 50  0001 C CNN
	1    8000 5400
	-1   0    0    -1  
$EndComp
$Comp
L openfc-eagle-import:MICROSD MOLEX_47334-1
U 1 1 E8C0D167
P 10200 5700
F 0 "MOLEX_47334-1" H 10200 5700 50  0001 C CNN
F 1 "MICROSD" H 10200 5700 50  0001 C CNN
F 2 "openfc:MICROSD" H 10200 5700 50  0001 C CNN
F 3 "" H 10200 5700 50  0001 C CNN
	1    10200 5700
	1    0    0    -1  
$EndComp
$Comp
L openfc-eagle-import:GND #GND012
U 1 1 A5F18D96
P 9200 6800
F 0 "#GND012" H 9200 6800 50  0001 C CNN
F 1 "GND" H 9100 6700 59  0000 L BNN
F 2 "" H 9200 6800 50  0001 C CNN
F 3 "" H 9200 6800 50  0001 C CNN
	1    9200 6800
	1    0    0    -1  
$EndComp
$Comp
L openfc-eagle-import:+3V3 #+3V08
U 1 1 1B9F338C
P 9200 4700
F 0 "#+3V08" H 9200 4700 50  0001 C CNN
F 1 "+3V3" V 9100 4500 59  0000 L BNN
F 2 "" H 9200 4700 50  0001 C CNN
F 3 "" H 9200 4700 50  0001 C CNN
	1    9200 4700
	-1   0    0    -1  
$EndComp
$Comp
L openfc-eagle-import:GND #GND013
U 1 1 9E3D6951
P 9400 5300
F 0 "#GND013" H 9400 5300 50  0001 C CNN
F 1 "GND" H 9300 5200 59  0000 L BNN
F 2 "" H 9400 5300 50  0001 C CNN
F 3 "" H 9400 5300 50  0001 C CNN
	1    9400 5300
	1    0    0    -1  
$EndComp
$Comp
L openfc-eagle-import:PINHD-1X3 M1
U 1 1 89A59580
P 1700 4600
F 0 "M1" H 1450 4825 59  0000 L BNN
F 1 "PINHD-1X3" H 1450 4300 59  0000 L BNN
F 2 "openfc:1X03" H 1700 4600 50  0001 C CNN
F 3 "" H 1700 4600 50  0001 C CNN
	1    1700 4600
	0    -1   -1   0   
$EndComp
$Comp
L openfc-eagle-import:PINHD-1X3 M2
U 1 1 074027D4
P 1700 4900
F 0 "M2" H 1450 5125 59  0000 L BNN
F 1 "PINHD-1X3" H 1450 4600 59  0000 L BNN
F 2 "openfc:1X03" H 1700 4900 50  0001 C CNN
F 3 "" H 1700 4900 50  0001 C CNN
	1    1700 4900
	0    -1   -1   0   
$EndComp
$Comp
L openfc-eagle-import:PINHD-1X3 M3
U 1 1 677E9A1D
P 1700 5200
F 0 "M3" H 1450 5425 59  0000 L BNN
F 1 "PINHD-1X3" H 1450 4900 59  0000 L BNN
F 2 "openfc:1X03" H 1700 5200 50  0001 C CNN
F 3 "" H 1700 5200 50  0001 C CNN
	1    1700 5200
	0    -1   -1   0   
$EndComp
$Comp
L openfc-eagle-import:PINHD-1X3 M4
U 1 1 CE9ED722
P 1700 5500
F 0 "M4" H 1450 5725 59  0000 L BNN
F 1 "PINHD-1X3" H 1450 5200 59  0000 L BNN
F 2 "openfc:1X03" H 1700 5500 50  0001 C CNN
F 3 "" H 1700 5500 50  0001 C CNN
	1    1700 5500
	0    -1   -1   0   
$EndComp
$Comp
L openfc-eagle-import:PINHD-1X3 M5
U 1 1 58B59406
P 1700 5800
F 0 "M5" H 1450 6025 59  0000 L BNN
F 1 "PINHD-1X3" H 1450 5500 59  0000 L BNN
F 2 "openfc:1X03" H 1700 5800 50  0001 C CNN
F 3 "" H 1700 5800 50  0001 C CNN
	1    1700 5800
	0    -1   -1   0   
$EndComp
$Comp
L openfc-eagle-import:PINHD-1X3 M6
U 1 1 E790B949
P 1700 6100
F 0 "M6" H 1450 6325 59  0000 L BNN
F 1 "PINHD-1X3" H 1450 5800 59  0000 L BNN
F 2 "openfc:1X03" H 1700 6100 50  0001 C CNN
F 3 "" H 1700 6100 50  0001 C CNN
	1    1700 6100
	0    -1   -1   0   
$EndComp
$Comp
L openfc-eagle-import:PINHD-1X3 M7
U 1 1 0D05E142
P 1700 6400
F 0 "M7" H 1450 6625 59  0000 L BNN
F 1 "PINHD-1X3" H 1450 6100 59  0000 L BNN
F 2 "openfc:1X03" H 1700 6400 50  0001 C CNN
F 3 "" H 1700 6400 50  0001 C CNN
	1    1700 6400
	0    -1   -1   0   
$EndComp
$Comp
L openfc-eagle-import:PINHD-1X3 M8
U 1 1 8B207E0E
P 1700 6700
F 0 "M8" H 1450 6925 59  0000 L BNN
F 1 "PINHD-1X3" H 1450 6400 59  0000 L BNN
F 2 "openfc:1X03" H 1700 6700 50  0001 C CNN
F 3 "" H 1700 6700 50  0001 C CNN
	1    1700 6700
	0    -1   -1   0   
$EndComp
$Comp
L openfc-eagle-import:PINHD-1X3 PPM1
U 1 1 21FDF25A
P 1700 7000
F 0 "PPM1" H 1450 7225 59  0000 L BNN
F 1 "PINHD-1X3" H 1450 6700 59  0000 L BNN
F 2 "openfc:1X03" H 1700 7000 50  0001 C CNN
F 3 "" H 1700 7000 50  0001 C CNN
	1    1700 7000
	0    -1   -1   0   
$EndComp
$Comp
L openfc-eagle-import:SPIIMU U$4
U 1 1 84E86E02
P 8800 2300
F 0 "U$4" H 8300 2700 59  0000 L BNN
F 1 "SPIIMU" H 8300 1900 59  0000 L BNN
F 2 "openfc:SPIIMU" H 8800 2300 50  0001 C CNN
F 3 "" H 8800 2300 50  0001 C CNN
	1    8800 2300
	1    0    0    -1  
$EndComp
$Comp
L openfc-eagle-import:C-EUC0603 C6
U 1 1 FE64C8E2
P 8200 6100
F 0 "C6" H 8260 6115 59  0000 L BNN
F 1 "100n" H 8260 5915 59  0000 L BNN
F 2 "openfc:C0603" H 8200 6100 50  0001 C CNN
F 3 "" H 8200 6100 50  0001 C CNN
	1    8200 6100
	1    0    0    -1  
$EndComp
$Comp
L openfc-eagle-import:C-EUC0603 C12
U 1 1 5225900B
P 9000 6300
F 0 "C12" H 9060 6315 59  0000 L BNN
F 1 "100n" H 9060 6115 59  0000 L BNN
F 2 "openfc:C0603" H 9000 6300 50  0001 C CNN
F 3 "" H 9000 6300 50  0001 C CNN
	1    9000 6300
	-1   0    0    1   
$EndComp
$Comp
L openfc-eagle-import:+3V3 #+3V03
U 1 1 A56F219E
P 2100 1000
F 0 "#+3V03" H 2100 1000 50  0001 C CNN
F 1 "+3V3" V 2000 800 59  0000 L BNN
F 2 "" H 2100 1000 50  0001 C CNN
F 3 "" H 2100 1000 50  0001 C CNN
	1    2100 1000
	1    0    0    -1  
$EndComp
$Comp
L openfc-eagle-import:MA04-1 GPS1
U 1 1 6336A887
P 5300 1200
F 0 "GPS1" H 5250 1430 59  0000 L BNN
F 1 "MA04-1" H 5250 800 59  0000 L BNN
F 2 "openfc:MA04-1" H 5300 1200 50  0001 C CNN
F 3 "" H 5300 1200 50  0001 C CNN
	1    5300 1200
	-1   0    0    1   
$EndComp
$Comp
L openfc-eagle-import:MA04-1 TELE1
U 1 1 7F0786D0
P 6700 1200
F 0 "TELE1" H 6650 1430 59  0000 L BNN
F 1 "MA04-1" H 6650 800 59  0000 L BNN
F 2 "openfc:MA04-1" H 6700 1200 50  0001 C CNN
F 3 "" H 6700 1200 50  0001 C CNN
	1    6700 1200
	-1   0    0    1   
$EndComp
$Comp
L openfc-eagle-import:GND #GND01
U 1 1 DB8695AC
P 4800 1500
F 0 "#GND01" H 4800 1500 50  0001 C CNN
F 1 "GND" H 4700 1400 59  0000 L BNN
F 2 "" H 4800 1500 50  0001 C CNN
F 3 "" H 4800 1500 50  0001 C CNN
	1    4800 1500
	1    0    0    -1  
$EndComp
$Comp
L openfc-eagle-import:GND #GND05
U 1 1 EF27308A
P 6200 1500
F 0 "#GND05" H 6200 1500 50  0001 C CNN
F 1 "GND" H 6100 1400 59  0000 L BNN
F 2 "" H 6200 1500 50  0001 C CNN
F 3 "" H 6200 1500 50  0001 C CNN
	1    6200 1500
	1    0    0    -1  
$EndComp
$Comp
L openfc-eagle-import:+3V3 #+3V04
U 1 1 E81106EE
P 4800 700
F 0 "#+3V04" H 4800 700 50  0001 C CNN
F 1 "+3V3" V 4700 500 59  0000 L BNN
F 2 "" H 4800 700 50  0001 C CNN
F 3 "" H 4800 700 50  0001 C CNN
	1    4800 700 
	1    0    0    -1  
$EndComp
$Comp
L openfc-eagle-import:GND #GND06
U 1 1 A07C0193
P 2200 7300
F 0 "#GND06" H 2200 7300 50  0001 C CNN
F 1 "GND" H 2100 7200 59  0000 L BNN
F 2 "" H 2200 7300 50  0001 C CNN
F 3 "" H 2200 7300 50  0001 C CNN
	1    2200 7300
	1    0    0    -1  
$EndComp
$Comp
L openfc-eagle-import:V_REG_LM1117SOT223 IC1
U 1 1 06F92037
P 9700 7700
F 0 "IC1" H 9800 7400 59  0000 L BNN
F 1 "V_REG_LM1117SOT223" H 9800 7300 59  0000 L BNN
F 2 "openfc:SOT223" H 9700 7700 50  0001 C CNN
F 3 "" H 9700 7700 50  0001 C CNN
	1    9700 7700
	1    0    0    -1  
$EndComp
$Comp
L openfc-eagle-import:GND #GND07
U 1 1 9CDE76EF
P 9700 8200
F 0 "#GND07" H 9700 8200 50  0001 C CNN
F 1 "GND" H 9600 8100 59  0000 L BNN
F 2 "" H 9700 8200 50  0001 C CNN
F 3 "" H 9700 8200 50  0001 C CNN
	1    9700 8200
	1    0    0    -1  
$EndComp
$Comp
L openfc-eagle-import:C-EUC1206 C14
U 1 1 641B62C6
P 10200 7800
F 0 "C14" H 10260 7815 59  0000 L BNN
F 1 "C-EUC1206" H 10260 7615 59  0000 L BNN
F 2 "openfc:C1206" H 10200 7800 50  0001 C CNN
F 3 "" H 10200 7800 50  0001 C CNN
	1    10200 7800
	1    0    0    -1  
$EndComp
$Comp
L openfc-eagle-import:+3V3 #+3V09
U 1 1 21780286
P 10600 7500
F 0 "#+3V09" H 10600 7500 50  0001 C CNN
F 1 "+3V3" V 10500 7300 59  0000 L BNN
F 2 "" H 10600 7500 50  0001 C CNN
F 3 "" H 10600 7500 50  0001 C CNN
	1    10600 7500
	1    0    0    -1  
$EndComp
$Comp
L openfc-eagle-import:MA04-1 CAN1
U 1 1 F91DA53A
P 8000 1200
F 0 "CAN1" H 7950 1430 59  0000 L BNN
F 1 "MA04-1" H 7950 800 59  0000 L BNN
F 2 "openfc:MA04-1" H 8000 1200 50  0001 C CNN
F 3 "" H 8000 1200 50  0001 C CNN
F 4 "unknown" H 7950 800 59  0001 L BNN "OC_FARNELL"
F 5 "unknown" H 7950 800 59  0001 L BNN "OC_NEWARK"
	1    8000 1200
	-1   0    0    1   
$EndComp
$Comp
L openfc-eagle-import:+3V3 #+3V010
U 1 1 7D3B51B6
P 7500 700
F 0 "#+3V010" H 7500 700 50  0001 C CNN
F 1 "+3V3" V 7400 500 59  0000 L BNN
F 2 "" H 7500 700 50  0001 C CNN
F 3 "" H 7500 700 50  0001 C CNN
	1    7500 700 
	1    0    0    -1  
$EndComp
$Comp
L openfc-eagle-import:GND #GND014
U 1 1 109F320A
P 7500 1500
F 0 "#GND014" H 7500 1500 50  0001 C CNN
F 1 "GND" H 7400 1400 59  0000 L BNN
F 2 "" H 7500 1500 50  0001 C CNN
F 3 "" H 7500 1500 50  0001 C CNN
	1    7500 1500
	1    0    0    -1  
$EndComp
$Comp
L openfc-eagle-import:PINHD-1X1 BOOT0
U 1 1 A708F301
P 2600 1400
F 0 "BOOT0" H 2350 1525 59  0000 L BNN
F 1 "PINHD-1X1" H 2350 1200 59  0000 L BNN
F 2 "openfc:1X01" H 2600 1400 50  0001 C CNN
F 3 "" H 2600 1400 50  0001 C CNN
	1    2600 1400
	1    0    0    -1  
$EndComp
$Comp
L openfc-eagle-import:PINHD-1X1 +3.3
U 1 1 FFF999FB
P 2600 1200
F 0 "+3.3" H 2350 1325 59  0000 L BNN
F 1 "PINHD-1X1" H 2350 1000 59  0000 L BNN
F 2 "openfc:1X01" H 2600 1200 50  0001 C CNN
F 3 "" H 2600 1200 50  0001 C CNN
	1    2600 1200
	1    0    0    -1  
$EndComp
$Comp
L openfc-eagle-import:LED-RED0603 GPS_1
U 1 1 3DF8B228
P 10200 3400
F 0 "GPS_1" V 10340 3220 59  0000 L BNN
F 1 "RED" V 10425 3220 59  0000 L BNN
F 2 "openfc:LED-0603" H 10200 3400 50  0001 C CNN
F 3 "" H 10200 3400 50  0001 C CNN
F 4 "DIO-00819" V 10425 3220 59  0001 L BNN "PROD_ID"
	1    10200 3400
	0    -1   -1   0   
$EndComp
$Comp
L openfc-eagle-import:LED-RED0603 RDY1
U 1 1 1A6AC48B
P 10200 3800
F 0 "RDY1" V 10340 3620 59  0000 L BNN
F 1 "RED" V 10425 3620 59  0000 L BNN
F 2 "openfc:LED-0603" H 10200 3800 50  0001 C CNN
F 3 "" H 10200 3800 50  0001 C CNN
F 4 "DIO-00819" V 10425 3620 59  0001 L BNN "PROD_ID"
	1    10200 3800
	0    -1   -1   0   
$EndComp
$Comp
L openfc-eagle-import:LED-RED0603 DB1
U 1 1 28505B66
P 10200 4200
F 0 "DB1" V 10340 4020 59  0000 L BNN
F 1 "RED" V 10425 4020 59  0000 L BNN
F 2 "openfc:LED-0603" H 10200 4200 50  0001 C CNN
F 3 "" H 10200 4200 50  0001 C CNN
F 4 "DIO-00819" V 10425 4020 59  0001 L BNN "PROD_ID"
	1    10200 4200
	0    -1   -1   0   
$EndComp
$Comp
L openfc-eagle-import:GND #GND016
U 1 1 99D4D269
P 10400 4600
F 0 "#GND016" H 10400 4600 50  0001 C CNN
F 1 "GND" H 10300 4500 59  0000 L BNN
F 2 "" H 10400 4600 50  0001 C CNN
F 3 "" H 10400 4600 50  0001 C CNN
	1    10400 4600
	1    0    0    -1  
$EndComp
$Comp
L openfc-eagle-import:R-EU_R0603 R1
U 1 1 34554CA9
P 9900 3400
F 0 "R1" H 9750 3459 59  0000 L BNN
F 1 "220" H 9750 3270 59  0000 L BNN
F 2 "openfc:R0603" H 9900 3400 50  0001 C CNN
F 3 "" H 9900 3400 50  0001 C CNN
	1    9900 3400
	1    0    0    -1  
$EndComp
$Comp
L openfc-eagle-import:R-EU_R0603 R6
U 1 1 1B0851EB
P 9900 3800
F 0 "R6" H 9750 3859 59  0000 L BNN
F 1 "220" H 9750 3670 59  0000 L BNN
F 2 "openfc:R0603" H 9900 3800 50  0001 C CNN
F 3 "" H 9900 3800 50  0001 C CNN
	1    9900 3800
	1    0    0    -1  
$EndComp
$Comp
L openfc-eagle-import:R-EU_R0603 R7
U 1 1 E1EE9F6E
P 9900 4200
F 0 "R7" H 9750 4259 59  0000 L BNN
F 1 "220" H 9750 4070 59  0000 L BNN
F 2 "openfc:R0603" H 9900 4200 50  0001 C CNN
F 3 "" H 9900 4200 50  0001 C CNN
	1    9900 4200
	1    0    0    -1  
$EndComp
$Comp
L openfc-eagle-import:LED-RED0603 PWD1
U 1 1 6B1190B7
P 10200 3000
F 0 "PWD1" V 10340 2820 59  0000 L BNN
F 1 "RED" V 10425 2820 59  0000 L BNN
F 2 "openfc:LED-0603" H 10200 3000 50  0001 C CNN
F 3 "" H 10200 3000 50  0001 C CNN
F 4 "DIO-00819" V 10425 2820 59  0001 L BNN "PROD_ID"
F 5 "RED" V 10425 2820 59  0001 L BNN "VALUE"
	1    10200 3000
	0    -1   -1   0   
$EndComp
$Comp
L openfc-eagle-import:R-EU_R0603 R8
U 1 1 CC3FC836
P 9900 3000
F 0 "R8" H 9750 3059 59  0000 L BNN
F 1 "220" H 9750 2870 59  0000 L BNN
F 2 "openfc:R0603" H 9900 3000 50  0001 C CNN
F 3 "" H 9900 3000 50  0001 C CNN
	1    9900 3000
	1    0    0    -1  
$EndComp
$Comp
L openfc-eagle-import:+3V3 #+3V011
U 1 1 2B08D267
P 9200 2900
F 0 "#+3V011" H 9200 2900 50  0001 C CNN
F 1 "+3V3" V 9100 2700 59  0000 L BNN
F 2 "" H 9200 2900 50  0001 C CNN
F 3 "" H 9200 2900 50  0001 C CNN
	1    9200 2900
	-1   0    0    -1  
$EndComp
$Comp
L openfc-eagle-import:R-EU_R0603 R9
U 1 1 AF631EA7
P 6800 3200
F 0 "R9" H 6650 3259 59  0000 L BNN
F 1 "1k" H 6650 3070 59  0000 L BNN
F 2 "openfc:R0603" H 6800 3200 50  0001 C CNN
F 3 "" H 6800 3200 50  0001 C CNN
	1    6800 3200
	0    -1   -1   0   
$EndComp
$Comp
L openfc-eagle-import:R-EU_R0603 R10
U 1 1 0A067037
P 7000 3000
F 0 "R10" H 6850 3059 59  0000 L BNN
F 1 "10k" H 6850 2870 59  0000 L BNN
F 2 "openfc:R0603" H 7000 3000 50  0001 C CNN
F 3 "" H 7000 3000 50  0001 C CNN
	1    7000 3000
	1    0    0    -1  
$EndComp
$Comp
L openfc-eagle-import:GND #GND017
U 1 1 0A5A0AC8
P 6800 3500
F 0 "#GND017" H 6800 3500 50  0001 C CNN
F 1 "GND" H 6700 3400 59  0000 L BNN
F 2 "" H 6800 3500 50  0001 C CNN
F 3 "" H 6800 3500 50  0001 C CNN
	1    6800 3500
	1    0    0    -1  
$EndComp
$Comp
L openfc-eagle-import:PINHD-1X3 SER3
U 1 1 F74FCE19
P 1700 7700
F 0 "SER3" H 1450 7925 59  0000 L BNN
F 1 "PINHD-1X3" H 1450 7400 59  0000 L BNN
F 2 "openfc:1X03" H 1700 7700 50  0001 C CNN
F 3 "" H 1700 7700 50  0001 C CNN
	1    1700 7700
	0    -1   -1   0   
$EndComp
$Comp
L openfc-eagle-import:GND #GND018
U 1 1 E0081D19
P 1800 8000
F 0 "#GND018" H 1800 8000 50  0001 C CNN
F 1 "GND" H 1700 7900 59  0000 L BNN
F 2 "" H 1800 8000 50  0001 C CNN
F 3 "" H 1800 8000 50  0001 C CNN
	1    1800 8000
	1    0    0    -1  
$EndComp
$Comp
L openfc-eagle-import:PINHD-1X1 SCLK1
U 1 1 B2FAF7C8
P 5500 4000
F 0 "SCLK1" H 5250 4125 59  0000 L BNN
F 1 "PINHD-1X1" H 5250 3800 59  0000 L BNN
F 2 "openfc:1X01" H 5500 4000 50  0001 C CNN
F 3 "" H 5500 4000 50  0001 C CNN
	1    5500 4000
	1    0    0    -1  
$EndComp
$Comp
L openfc-eagle-import:PINHD-1X1 MISO1
U 1 1 AB0B02A9
P 5500 4200
F 0 "MISO1" H 5250 4325 59  0000 L BNN
F 1 "PINHD-1X1" H 5250 4000 59  0000 L BNN
F 2 "openfc:1X01" H 5500 4200 50  0001 C CNN
F 3 "" H 5500 4200 50  0001 C CNN
	1    5500 4200
	1    0    0    -1  
$EndComp
$Comp
L openfc-eagle-import:PINHD-1X1 MOSI1
U 1 1 EC18B238
P 5500 4400
F 0 "MOSI1" H 5250 4525 59  0000 L BNN
F 1 "PINHD-1X1" H 5250 4200 59  0000 L BNN
F 2 "openfc:1X01" H 5500 4400 50  0001 C CNN
F 3 "" H 5500 4400 50  0001 C CNN
	1    5500 4400
	1    0    0    -1  
$EndComp
$Comp
L openfc-eagle-import:PINHD-1X1 O1
U 1 1 93ACE07A
P 5500 4600
F 0 "O1" H 5250 4725 59  0000 L BNN
F 1 "PINHD-1X1" H 5250 4400 59  0000 L BNN
F 2 "openfc:1X01" H 5500 4600 50  0001 C CNN
F 3 "" H 5500 4600 50  0001 C CNN
	1    5500 4600
	1    0    0    -1  
$EndComp
$Comp
L openfc-eagle-import:PINHD-1X1 O2
U 1 1 BC8CBAD2
P 5500 4800
F 0 "O2" H 5250 4925 59  0000 L BNN
F 1 "PINHD-1X1" H 5250 4600 59  0000 L BNN
F 2 "openfc:1X01" H 5500 4800 50  0001 C CNN
F 3 "" H 5500 4800 50  0001 C CNN
	1    5500 4800
	1    0    0    -1  
$EndComp
$Comp
L openfc-eagle-import:R-EU_R0603 R11
U 1 1 BC243054
P 1500 1300
F 0 "R11" H 1350 1359 59  0000 L BNN
F 1 "10k" H 1350 1170 59  0000 L BNN
F 2 "openfc:R0603" H 1500 1300 50  0001 C CNN
F 3 "" H 1500 1300 50  0001 C CNN
	1    1500 1300
	0    -1   -1   0   
$EndComp
$Comp
L openfc-eagle-import:+3V3 #+3V05
U 1 1 D30003A2
P 1500 1000
F 0 "#+3V05" H 1500 1000 50  0001 C CNN
F 1 "+3V3" V 1400 800 59  0000 L BNN
F 2 "" H 1500 1000 50  0001 C CNN
F 3 "" H 1500 1000 50  0001 C CNN
	1    1500 1000
	1    0    0    -1  
$EndComp
$Comp
L openfc-eagle-import:PINHD-1X1 TX3
U 1 1 18D6A416
P 2400 7800
F 0 "TX3" H 2150 7925 59  0000 L BNN
F 1 "PINHD-1X1" H 2150 7600 59  0000 L BNN
F 2 "openfc:1X01" H 2400 7800 50  0001 C CNN
F 3 "" H 2400 7800 50  0001 C CNN
	1    2400 7800
	1    0    0    -1  
$EndComp
$Comp
L openfc-eagle-import:PINHD-1X1 O3
U 1 1 D94F8C87
P 5000 7000
F 0 "O3" H 4750 7125 59  0000 L BNN
F 1 "PINHD-1X1" H 4750 6800 59  0000 L BNN
F 2 "openfc:1X01" H 5000 7000 50  0001 C CNN
F 3 "" H 5000 7000 50  0001 C CNN
	1    5000 7000
	1    0    0    -1  
$EndComp
$Comp
L openfc-eagle-import:TPTP14SQ SWDIO1
U 1 1 BAED7631
P 5700 3300
F 0 "SWDIO1" H 5650 3350 59  0000 L BNN
F 1 "TPTP14SQ" H 5700 3300 50  0001 C CNN
F 2 "openfc:TP14SQ" H 5700 3300 50  0001 C CNN
F 3 "" H 5700 3300 50  0001 C CNN
	1    5700 3300
	0    1    -1   0   
$EndComp
$Comp
L openfc-eagle-import:TPTP14SQ SWDCLK1
U 1 1 69AC5A37
P 5700 3500
F 0 "SWDCLK1" H 5650 3550 59  0000 L BNN
F 1 "TPTP14SQ" H 5700 3500 50  0001 C CNN
F 2 "openfc:TP14SQ" H 5700 3500 50  0001 C CNN
F 3 "" H 5700 3500 50  0001 C CNN
	1    5700 3500
	0    1    -1   0   
$EndComp
$Comp
L openfc-eagle-import:PINHD-1X1 ADC_EXT_V1
U 1 1 2547A1C8
P 5500 5400
F 0 "ADC_EXT_V1" H 5250 5525 59  0000 L BNN
F 1 "PINHD-1X1" H 5250 5200 59  0000 L BNN
F 2 "openfc:1X01" H 5500 5400 50  0001 C CNN
F 3 "" H 5500 5400 50  0001 C CNN
	1    5500 5400
	1    0    0    -1  
$EndComp
$Comp
L openfc-eagle-import:PINHD-1X1 3.3V1
U 1 1 E2D78DA7
P 5500 5800
F 0 "3.3V1" H 5250 5925 59  0000 L BNN
F 1 "PINHD-1X1" H 5250 5600 59  0000 L BNN
F 2 "openfc:1X01" H 5500 5800 50  0001 C CNN
F 3 "" H 5500 5800 50  0001 C CNN
	1    5500 5800
	1    0    0    -1  
$EndComp
$Comp
L openfc-eagle-import:PINHD-1X1 GND_1
U 1 1 CDB63A54
P 5500 6000
F 0 "GND_1" H 5250 6125 59  0000 L BNN
F 1 "PINHD-1X1" H 5250 5800 59  0000 L BNN
F 2 "openfc:1X01" H 5500 6000 50  0001 C CNN
F 3 "" H 5500 6000 50  0001 C CNN
	1    5500 6000
	1    0    0    -1  
$EndComp
$Comp
L openfc-eagle-import:+3V3 #+3V012
U 1 1 B115A5D5
P 5000 5500
F 0 "#+3V012" H 5000 5500 50  0001 C CNN
F 1 "+3V3" V 4900 5300 59  0000 L BNN
F 2 "" H 5000 5500 50  0001 C CNN
F 3 "" H 5000 5500 50  0001 C CNN
	1    5000 5500
	1    0    0    -1  
$EndComp
$Comp
L openfc-eagle-import:GND #GND019
U 1 1 48B3EBD8
P 5000 6300
F 0 "#GND019" H 5000 6300 50  0001 C CNN
F 1 "GND" H 4900 6200 59  0000 L BNN
F 2 "" H 5000 6300 50  0001 C CNN
F 3 "" H 5000 6300 50  0001 C CNN
	1    5000 6300
	1    0    0    -1  
$EndComp
$Comp
L openfc-eagle-import:R-EU_R0603 R12
U 1 1 D3CAF38E
P 1700 2200
F 0 "R12" H 1550 2259 59  0000 L BNN
F 1 "1M" H 1550 2070 59  0000 L BNN
F 2 "openfc:R0603" H 1700 2200 50  0001 C CNN
F 3 "" H 1700 2200 50  0001 C CNN
	1    1700 2200
	-1   0    0    1   
$EndComp
$Comp
L openfc-eagle-import:MC34063SMD U3
U 1 1 9A04CEE8
P 4500 8600
F 0 "U3" H 4200 8960 59  0000 L BNN
F 1 "MC34063SMD" H 4210 8270 59  0000 L BNN
F 2 "openfc:SO08" H 4500 8600 50  0001 C CNN
F 3 "http://www.ti.com/lit/ds/symlink/mc33063a.pdf" H 4500 8600 50  0001 C CNN
	1    4500 8600
	1    0    0    -1  
$EndComp
$Comp
L openfc-eagle-import:L-USL1812 L1
U 1 1 9F8CA55A
P 4800 7600
F 0 "L1" V 4750 7400 59  0000 L BNN
F 1 "47uH" V 4950 7400 59  0000 L BNN
F 2 "openfc:L1812" H 4800 7600 50  0001 C CNN
F 3 "" H 4800 7600 50  0001 C CNN
	1    4800 7600
	0    -1   -1   0   
$EndComp
$Comp
L openfc-eagle-import:ZENER-DIODESMB D3
U 1 1 535DAA14
P 4500 7800
F 0 "D3" H 4430 7875 59  0000 L BNN
F 1 "1N5859" H 4330 7665 59  0000 L BNN
F 2 "openfc:SMB" H 4500 7800 50  0001 C CNN
F 3 "" H 4500 7800 50  0001 C CNN
	1    4500 7800
	0    -1   -1   0   
$EndComp
$Comp
L openfc-eagle-import:DIODE-SMB D4
U 1 1 DCE5EB0D
P 6800 7900
F 0 "D4" H 6900 7919 59  0000 L BNN
F 1 "DIODE-SMB" H 6900 7809 59  0000 L BNN
F 2 "openfc:SMB" H 6800 7900 50  0001 C CNN
F 3 "" H 6800 7900 50  0001 C CNN
	1    6800 7900
	0    1    -1   0   
$EndComp
$Comp
L openfc-eagle-import:CPOL-EUB_3528-21R C15
U 1 1 87DA0280
P 6500 7800
F 0 "C15" H 6545 7819 59  0000 L BNN
F 1 "CPOL-EUB_3528-21R" H 6545 7619 59  0000 L BNN
F 2 "openfc:B_3528-21R" H 6500 7800 50  0001 C CNN
F 3 "" H 6500 7800 50  0001 C CNN
	1    6500 7800
	-1   0    0    -1  
$EndComp
$Comp
L openfc-eagle-import:CPOL-EUB_3528-21R C16
U 1 1 5F8D3B5F
P 5800 8900
F 0 "C16" H 5845 8919 59  0000 L BNN
F 1 "470u" H 5845 8719 59  0000 L BNN
F 2 "openfc:B_3528-21R" H 5800 8900 50  0001 C CNN
F 3 "" H 5800 8900 50  0001 C CNN
	1    5800 8900
	1    0    0    -1  
$EndComp
$Comp
L openfc-eagle-import:VCC #P+01
U 1 1 BCDF72C5
P 6800 7600
F 0 "#P+01" H 6800 7600 50  0001 C CNN
F 1 "VCC" H 6760 7740 59  0000 L BNN
F 2 "" H 6800 7600 50  0001 C CNN
F 3 "" H 6800 7600 50  0001 C CNN
	1    6800 7600
	-1   0    0    -1  
$EndComp
$Comp
L openfc-eagle-import:VCC #P+02
U 1 1 339DE9D3
P 6500 7600
F 0 "#P+02" H 6500 7600 50  0001 C CNN
F 1 "VCC" H 6460 7740 59  0000 L BNN
F 2 "" H 6500 7600 50  0001 C CNN
F 3 "" H 6500 7600 50  0001 C CNN
	1    6500 7600
	-1   0    0    -1  
$EndComp
$Comp
L openfc-eagle-import:GND #GND022
U 1 1 FB1CD9CF
P 6500 8100
F 0 "#GND022" H 6500 8100 50  0001 C CNN
F 1 "GND" H 6400 8000 59  0000 L BNN
F 2 "" H 6500 8100 50  0001 C CNN
F 3 "" H 6500 8100 50  0001 C CNN
	1    6500 8100
	-1   0    0    -1  
$EndComp
$Comp
L openfc-eagle-import:GND #GND023
U 1 1 C7080FD3
P 3600 9300
F 0 "#GND023" H 3600 9300 50  0001 C CNN
F 1 "GND" H 3500 9200 59  0000 L BNN
F 2 "" H 3600 9300 50  0001 C CNN
F 3 "" H 3600 9300 50  0001 C CNN
	1    3600 9300
	1    0    0    -1  
$EndComp
$Comp
L openfc-eagle-import:GND #GND024
U 1 1 664B2FAE
P 4500 8000
F 0 "#GND024" H 4500 8000 50  0001 C CNN
F 1 "GND" H 4400 7900 59  0000 L BNN
F 2 "" H 4500 8000 50  0001 C CNN
F 3 "" H 4500 8000 50  0001 C CNN
	1    4500 8000
	1    0    0    -1  
$EndComp
$Comp
L openfc-eagle-import:GND #GND025
U 1 1 2EE633C3
P 5800 9300
F 0 "#GND025" H 5800 9300 50  0001 C CNN
F 1 "GND" H 5700 9200 59  0000 L BNN
F 2 "" H 5800 9300 50  0001 C CNN
F 3 "" H 5800 9300 50  0001 C CNN
	1    5800 9300
	1    0    0    -1  
$EndComp
$Comp
L openfc-eagle-import:GND #GND026
U 1 1 9E0685E6
P 5400 9300
F 0 "#GND026" H 5400 9300 50  0001 C CNN
F 1 "GND" H 5300 9200 59  0000 L BNN
F 2 "" H 5400 9300 50  0001 C CNN
F 3 "" H 5400 9300 50  0001 C CNN
	1    5400 9300
	1    0    0    -1  
$EndComp
$Comp
L openfc-eagle-import:VCC #P+03
U 1 1 00F05DF6
P 5300 8500
F 0 "#P+03" H 5300 8500 50  0001 C CNN
F 1 "VCC" H 5260 8640 59  0001 L BNN
F 2 "" H 5300 8500 50  0001 C CNN
F 3 "" H 5300 8500 50  0001 C CNN
	1    5300 8500
	1    0    0    -1  
$EndComp
$Comp
L openfc-eagle-import:VCC #P+04
U 1 1 A7FDB2D8
P 5100 7800
F 0 "#P+04" H 5100 7800 50  0001 C CNN
F 1 "VCC" H 5160 7840 59  0000 L BNN
F 2 "" H 5100 7800 50  0001 C CNN
F 3 "" H 5100 7800 50  0001 C CNN
	1    5100 7800
	1    0    0    -1  
$EndComp
$Comp
L openfc-eagle-import:DIODE-SMB D1
U 1 1 8D141E84
P 8900 7400
F 0 "D1" H 9000 7419 59  0000 L BNN
F 1 "DIODE-SMB" H 9000 7309 59  0000 L BNN
F 2 "openfc:SMB" H 8900 7400 50  0001 C CNN
F 3 "" H 8900 7400 50  0001 C CNN
	1    8900 7400
	1    0    0    1   
$EndComp
$Comp
L openfc-eagle-import:R-EU_R0603 R13
U 1 1 2227290C
P 5100 8100
F 0 "R13" H 4950 8159 59  0000 L BNN
F 1 "0R33" H 4950 7970 59  0000 L BNN
F 2 "openfc:R0603" H 5100 8100 50  0001 C CNN
F 3 "" H 5100 8100 50  0001 C CNN
	1    5100 8100
	0    1    1    0   
$EndComp
$Comp
L openfc-eagle-import:R-EU_R0603 R14
U 1 1 F203A516
P 5400 8100
F 0 "R14" H 5250 8159 59  0000 L BNN
F 1 "33k" H 5250 7970 59  0000 L BNN
F 2 "openfc:R0603" H 5400 8100 50  0001 C CNN
F 3 "" H 5400 8100 50  0001 C CNN
	1    5400 8100
	0    1    1    0   
$EndComp
$Comp
L openfc-eagle-import:R-EU_R0603 R15
U 1 1 308EBC6D
P 5400 9000
F 0 "R15" H 5250 9059 59  0000 L BNN
F 1 "11k" H 5250 8870 59  0000 L BNN
F 2 "openfc:R0603" H 5400 9000 50  0001 C CNN
F 3 "" H 5400 9000 50  0001 C CNN
	1    5400 9000
	0    1    1    0   
$EndComp
$Comp
L openfc-eagle-import:C-EUC0603 C17
U 1 1 03E599E7
P 3900 8600
F 0 "C17" H 3960 8615 59  0000 L BNN
F 1 "470p" H 3960 8415 59  0000 L BNN
F 2 "openfc:C0603" H 3900 8600 50  0001 C CNN
F 3 "" H 3900 8600 50  0001 C CNN
	1    3900 8600
	0    1    1    0   
$EndComp
$Comp
L openfc-eagle-import:C-EUC0603 C13
U 1 1 9AFB8C1C
P 9200 7900
F 0 "C13" H 9260 7915 59  0000 L BNN
F 1 "10u" H 9260 7715 59  0000 L BNN
F 2 "openfc:C0603" H 9200 7900 50  0001 C CNN
F 3 "" H 9200 7900 50  0001 C CNN
	1    9200 7900
	-1   0    0    1   
$EndComp
$Comp
L openfc-eagle-import:PINHD-1X1_POWER_INLET LIPO+1
U 1 1 8B954348
P 9400 8600
F 0 "LIPO+1" H 9150 8725 59  0000 L BNN
F 1 "PINHD-1X1" H 9150 8400 59  0000 L BNN
F 2 "openfc:1X01" H 9400 8600 50  0001 C CNN
F 3 "" H 9400 8600 50  0001 C CNN
	1    9400 8600
	1    0    0    -1  
$EndComp
$Comp
L openfc-eagle-import:PINHD-1X1 LIPO-1
U 1 1 6F1FC973
P 9400 8900
F 0 "LIPO-1" H 9150 9025 59  0000 L BNN
F 1 "PINHD-1X1" H 9150 8700 59  0000 L BNN
F 2 "openfc:1X01" H 9400 8900 50  0001 C CNN
F 3 "" H 9400 8900 50  0001 C CNN
	1    9400 8900
	1    0    0    -1  
$EndComp
$Comp
L openfc-eagle-import:GND #GND015
U 1 1 257B06B4
P 8600 9000
F 0 "#GND015" H 8600 9000 50  0001 C CNN
F 1 "GND" H 8500 8900 59  0000 L BNN
F 2 "" H 8600 9000 50  0001 C CNN
F 3 "" H 8600 9000 50  0001 C CNN
	1    8600 9000
	-1   0    0    -1  
$EndComp
$Comp
L openfc-eagle-import:GND #GND020
U 1 1 2DF12463
P 4700 6100
F 0 "#GND020" H 4700 6100 50  0001 C CNN
F 1 "GND" H 4600 6000 59  0000 L BNN
F 2 "" H 4700 6100 50  0001 C CNN
F 3 "" H 4700 6100 50  0001 C CNN
	1    4700 6100
	1    0    0    -1  
$EndComp
$Comp
L openfc-eagle-import:PINHD-1X1 TX6
U 1 1 CFABB390
P 2400 6800
F 0 "TX6" H 2150 6925 59  0000 L BNN
F 1 "PINHD-1X1" H 2150 6600 59  0000 L BNN
F 2 "openfc:1X01" H 2400 6800 50  0001 C CNN
F 3 "" H 2400 6800 50  0001 C CNN
	1    2400 6800
	1    0    0    -1  
$EndComp
$Comp
L openfc-eagle-import:C-EUC0603 C18
U 1 1 52B654BE
P 6400 3100
F 0 "C18" H 6460 3115 59  0000 L BNN
F 1 "100n" H 6460 2915 59  0000 L BNN
F 2 "openfc:C0603" H 6400 3100 50  0001 C CNN
F 3 "" H 6400 3100 50  0001 C CNN
	1    6400 3100
	1    0    0    -1  
$EndComp
$Comp
L openfc-eagle-import:GND #GND021
U 1 1 CF593DC2
P 6400 3500
F 0 "#GND021" H 6400 3500 50  0001 C CNN
F 1 "GND" H 6300 3400 59  0000 L BNN
F 2 "" H 6400 3500 50  0001 C CNN
F 3 "" H 6400 3500 50  0001 C CNN
	1    6400 3500
	1    0    0    -1  
$EndComp
$Comp
L openfc-eagle-import:BC847 T1
U 1 1 011D2A96
P 2600 8700
F 0 "T1" H 2200 9000 59  0000 L BNN
F 1 "BC847" H 2200 8900 59  0000 L BNN
F 2 "openfc:SOT23" H 2600 8700 50  0001 C CNN
F 3 "" H 2600 8700 50  0001 C CNN
	1    2600 8700
	1    0    0    -1  
$EndComp
$Comp
L openfc-eagle-import:R-EU_R0603 R16
U 1 1 2724FC92
P 2300 8700
F 0 "R16" H 2150 8759 59  0000 L BNN
F 1 "1k" H 2150 8570 59  0000 L BNN
F 2 "openfc:R0603" H 2300 8700 50  0001 C CNN
F 3 "" H 2300 8700 50  0001 C CNN
	1    2300 8700
	-1   0    0    1   
$EndComp
$Comp
L openfc-eagle-import:R-EU_R0603 R17
U 1 1 29F8CE43
P 2700 8300
F 0 "R17" H 2550 8359 59  0000 L BNN
F 1 "1k" H 2550 8170 59  0000 L BNN
F 2 "openfc:R0603" H 2700 8300 50  0001 C CNN
F 3 "" H 2700 8300 50  0001 C CNN
	1    2700 8300
	0    1    1    0   
$EndComp
$Comp
L openfc-eagle-import:GND #GND027
U 1 1 419D9C11
P 2700 9000
F 0 "#GND027" H 2700 9000 50  0001 C CNN
F 1 "GND" H 2600 8900 59  0000 L BNN
F 2 "" H 2700 9000 50  0001 C CNN
F 3 "" H 2700 9000 50  0001 C CNN
	1    2700 9000
	1    0    0    -1  
$EndComp
$Comp
L openfc-eagle-import:+3V3 #+3V02
U 1 1 37D36547
P 2700 7900
F 0 "#+3V02" H 2700 7900 50  0001 C CNN
F 1 "+3V3" V 2600 7700 59  0000 L BNN
F 2 "" H 2700 7900 50  0001 C CNN
F 3 "" H 2700 7900 50  0001 C CNN
	1    2700 7900
	-1   0    0    -1  
$EndComp
$Comp
L openfc-eagle-import:PINHD-1X3 INV1
U 1 1 7517A5BC
P 3200 8200
F 0 "INV1" H 2950 8425 59  0000 L BNN
F 1 "PINHD-1X3" H 2950 7900 59  0000 L BNN
F 2 "openfc:1X03" H 3200 8200 50  0001 C CNN
F 3 "" H 3200 8200 50  0001 C CNN
	1    3200 8200
	0    -1   -1   0   
$EndComp
$Comp
L openfc-eagle-import:C-EUC0603 C19
U 1 1 5D88D454
P 2500 1800
F 0 "C19" H 2560 1815 59  0000 L BNN
F 1 "100n" H 2560 1615 59  0000 L BNN
F 2 "openfc:C0603" H 2500 1800 50  0001 C CNN
F 3 "" H 2500 1800 50  0001 C CNN
	1    2500 1800
	-1   0    0    1   
$EndComp
$Comp
L openfc-eagle-import:PINHD-1X1 +5V1
U 1 1 2CD2C0FA
P 5500 6500
F 0 "+5V1" H 5250 6625 59  0000 L BNN
F 1 "PINHD-1X1" H 5250 6300 59  0000 L BNN
F 2 "openfc:1X01" H 5500 6500 50  0001 C CNN
F 3 "" H 5500 6500 50  0001 C CNN
	1    5500 6500
	1    0    0    -1  
$EndComp
Wire Wire Line
	3300 7000 4900 7000
Text Notes 6850 6900 0    79   ~ 16
SPI Flash around 130 Kbytes
Text Notes 6350 8350 0    50   ~ 0
100 uF
Text Notes 3600 9850 0    50   ~ 0
V in is expected to be est. 10.4 V \n(Flexible internal regulation present?)
Text Notes 6100 9250 0    50   ~ 0
this capacitor should be \na little bit bigger than 470u\n
Text Notes 3600 9650 0    79   ~ 16
Step-down converter from LiPo input to 5 V
Text Notes 10350 7900 0    50   ~ 0
10-100 uf 
Wire Wire Line
	10200 8000 10050 8000
Wire Wire Line
	10000 7800 10050 7800
Wire Wire Line
	10050 7800 10050 8000
Connection ~ 10050 8000
Wire Wire Line
	10050 8000 9700 8000
Text Notes 9950 8250 0    50   ~ 0
maybe worth upgrading to \nLM1117I to have -40C temperature support
Text Notes 9550 7450 0    79   ~ 16
5 v -> 3v3 maker
Text Notes 6950 5150 0    79   ~ 16
CAN transiever
$Comp
L openfc-eagle-import:GND #GND0102
U 1 1 5CCA8CDA
P 8000 4050
F 0 "#GND0102" H 8000 4050 50  0001 C CNN
F 1 "GND" H 7900 3950 59  0000 L BNN
F 2 "" H 8000 4050 50  0001 C CNN
F 3 "" H 8000 4050 50  0001 C CNN
	1    8000 4050
	-1   0    0    1   
$EndComp
Text Notes 8500 1650 0    79   ~ 16
Sensorboard connector
Text Label 8000 4250 0    79   ~ 0
GND
Text Notes 6950 3900 0    50   ~ 0
120 ohm between lines might be needed\nmaybe 60+60 with the middle decoupled 4700pf to gnd
NoConn ~ 4400 3100
NoConn ~ 1700 4700
NoConn ~ 1700 5000
NoConn ~ 1700 5300
NoConn ~ 1700 5600
NoConn ~ 1700 5900
NoConn ~ 1700 6200
NoConn ~ 1700 6500
NoConn ~ 1700 6800
Wire Wire Line
	8000 4400 8000 4150
Wire Wire Line
	8000 4500 8400 4500
Wire Wire Line
	8000 4600 8400 4600
NoConn ~ 8000 4700
Wire Wire Line
	6000 4700 6800 4700
Wire Wire Line
	6000 4400 6800 4400
$Comp
L openfc-eagle-import:MCP2561 U4
U 1 1 7C57E89D
P 7200 4700
F 0 "U4" H 7050 5200 50  0000 C CNN
F 1 "MCP2561" H 7200 4500 50  0000 C CNN
F 2 "openfc:SO08" H 7200 4700 50  0001 C CNN
F 3 "http://ww1.microchip.com/downloads/en/DeviceDoc/20005167C.pdf" H 7200 4700 50  0001 C CNN
	1    7200 4700
	1    0    0    -1  
$EndComp
$Comp
L openfc-eagle-import:C-EUC0603 C11
U 1 1 59663956
P 6100 4000
F 0 "C11" H 6160 4015 59  0000 L BNN
F 1 "100n" H 6160 3815 59  0000 L BNN
F 2 "openfc:C0603" H 6100 4000 50  0001 C CNN
F 3 "" H 6100 4000 50  0001 C CNN
	1    6100 4000
	1    0    0    -1  
$EndComp
Text Label 6100 4200 2    39   ~ 0
+5V
Wire Wire Line
	6100 4200 6500 4200
Wire Wire Line
	6600 3900 6100 3900
Wire Wire Line
	6500 4600 6700 4600
Wire Wire Line
	6800 4500 6600 4500
$Comp
L openfc-eagle-import:+5V #+5V0101
U 1 1 5CCC2658
P 6700 4100
F 0 "#+5V0101" H 6700 4100 50  0001 C CNN
F 1 "+5V" V 6600 3900 59  0000 L BNN
F 2 "" H 6700 4100 50  0001 C CNN
F 3 "" H 6700 4100 50  0001 C CNN
	1    6700 4100
	-1   0    0    -1  
$EndComp
Wire Wire Line
	6700 4200 6700 4600
Connection ~ 6700 4600
Wire Wire Line
	6700 4600 6800 4600
Text Label 1750 1600 0    50   ~ 0
NRST
$Comp
L openfc-eagle-import:C-EUC0603 C20
U 1 1 5CCA5F99
P 2200 2700
F 0 "C20" H 2260 2715 59  0000 L BNN
F 1 "4.7u" H 2260 2515 59  0000 L BNN
F 2 "openfc:C0603" H 2200 2700 50  0001 C CNN
F 3 "" H 2200 2700 50  0001 C CNN
	1    2200 2700
	0    1    1    0   
$EndComp
Wire Wire Line
	2000 2900 1900 2900
Wire Wire Line
	1900 2900 1900 2700
Wire Wire Line
	1900 2700 2000 2700
Connection ~ 1900 2900
Wire Wire Line
	1900 2900 1700 2900
Wire Wire Line
	2300 2700 2500 2700
Wire Wire Line
	2500 2700 2500 2900
Connection ~ 2500 2900
Text Notes 1400 2600 0    50   ~ 0
4.7 uf can be near any pin \nsee MCU ds
Text Label 3300 2900 0    50   ~ 0
USB_D_N
Text Label 3300 3000 0    50   ~ 0
USB_D_P
$EndSCHEMATC
