(module "1X03" (layer F.Cu) (tedit 0)
  (descr "<b>PIN HEADER</b>")
  (fp_text reference "INV" (at -3.8862 -1.8288 -180) (layer F.SilkS)
    (effects (font (size 1.2065 1.2065) (thickness 0.12065)) (justify left bottom))
  )
  (fp_text value "" (at -3.81 3.175 -180) (layer F.Fab)
    (effects (font (size 1.2065 1.2065) (thickness 0.09652)) (justify right top))
  )
  (fp_line (start -3.175 -1.27) (end -1.905 -1.27) (layer F.SilkS) (width 0.1524))
  (fp_line (start -1.905 -1.27) (end -1.27 -0.635) (layer F.SilkS) (width 0.1524))
  (fp_line (start -1.27 -0.635) (end -1.27 0.635) (layer F.SilkS) (width 0.1524))
  (fp_line (start -1.27 0.635) (end -1.905 1.27) (layer F.SilkS) (width 0.1524))
  (fp_line (start -1.27 -0.635) (end -0.635 -1.27) (layer F.SilkS) (width 0.1524))
  (fp_line (start -0.635 -1.27) (end 0.635 -1.27) (layer F.SilkS) (width 0.1524))
  (fp_line (start 0.635 -1.27) (end 1.27 -0.635) (layer F.SilkS) (width 0.1524))
  (fp_line (start 1.27 -0.635) (end 1.27 0.635) (layer F.SilkS) (width 0.1524))
  (fp_line (start 1.27 0.635) (end 0.635 1.27) (layer F.SilkS) (width 0.1524))
  (fp_line (start 0.635 1.27) (end -0.635 1.27) (layer F.SilkS) (width 0.1524))
  (fp_line (start -0.635 1.27) (end -1.27 0.635) (layer F.SilkS) (width 0.1524))
  (fp_line (start -3.81 -0.635) (end -3.81 0.635) (layer F.SilkS) (width 0.1524))
  (fp_line (start -3.175 -1.27) (end -3.81 -0.635) (layer F.SilkS) (width 0.1524))
  (fp_line (start -3.81 0.635) (end -3.175 1.27) (layer F.SilkS) (width 0.1524))
  (fp_line (start -1.905 1.27) (end -3.175 1.27) (layer F.SilkS) (width 0.1524))
  (fp_line (start 1.27 -0.635) (end 1.905 -1.27) (layer F.SilkS) (width 0.1524))
  (fp_line (start 1.905 -1.27) (end 3.175 -1.27) (layer F.SilkS) (width 0.1524))
  (fp_line (start 3.175 -1.27) (end 3.81 -0.635) (layer F.SilkS) (width 0.1524))
  (fp_line (start 3.81 -0.635) (end 3.81 0.635) (layer F.SilkS) (width 0.1524))
  (fp_line (start 3.81 0.635) (end 3.175 1.27) (layer F.SilkS) (width 0.1524))
  (fp_line (start 3.175 1.27) (end 1.905 1.27) (layer F.SilkS) (width 0.1524))
  (fp_line (start 1.905 1.27) (end 1.27 0.635) (layer F.SilkS) (width 0.1524))
  (fp_poly (pts (xy -0.254 0.254) (xy 0.254 0.254) (xy 0.254 -0.254) (xy -0.254 -0.254)) (layer F.Fab) (width 0))
  (fp_poly (pts (xy -2.794 0.254) (xy -2.286 0.254) (xy -2.286 -0.254) (xy -2.794 -0.254)) (layer F.Fab) (width 0))
  (fp_poly (pts (xy 2.286 0.254) (xy 2.794 0.254) (xy 2.794 -0.254) (xy 2.286 -0.254)) (layer F.Fab) (width 0))
  (pad "1" thru_hole circle (at -2.54 0 90) (size 1.416 1.416) (drill 1.016) (layers *.Cu *.Mask)
    (solder_mask_margin 0.075))
  (pad "2" thru_hole circle (at 0 0 90) (size 1.416 1.416) (drill 1.016) (layers *.Cu *.Mask)
    (solder_mask_margin 0.075))
  (pad "3" thru_hole circle (at 2.54 0 90) (size 1.416 1.416) (drill 1.016) (layers *.Cu *.Mask)
    (solder_mask_margin 0.075))
)
