(module "SO08WIDE" (layer F.Cu) (tedit 0)
  (fp_text reference "CAT25512VI-GT3" (at -2.7305 2.032 90) (layer F.SilkS)
    (effects (font (size 1.2065 1.2065) (thickness 0.127)) (justify left bottom))
  )
  (fp_text value "AT25FS010" (at 4.0005 2.032 90) (layer F.Fab)
    (effects (font (size 1.2065 1.2065) (thickness 0.127)) (justify left bottom))
  )
  (fp_line (start -2.362 1.803) (end 2.362 1.803) (layer F.Fab) (width 0.1524))
  (fp_line (start 2.362 1.803) (end 2.362 -1.803) (layer F.SilkS) (width 0.1524))
  (fp_line (start 2.362 -1.803) (end -2.362 -1.803) (layer F.Fab) (width 0.1524))
  (fp_line (start -2.362 -1.803) (end -2.362 1.803) (layer F.SilkS) (width 0.1524))
  (fp_circle (center -1.8034 0.9906) (end -1.4478 0.9906) (layer F.SilkS) (width 0.0508))
  (fp_poly (pts (xy -2.0828 2.8702) (xy -1.7272 2.8702) (xy -1.7272 1.8542) (xy -2.0828 1.8542)) (layer F.Fab) (width 0))
  (fp_poly (pts (xy -0.8128 2.8702) (xy -0.4572 2.8702) (xy -0.4572 1.8542) (xy -0.8128 1.8542)) (layer F.Fab) (width 0))
  (fp_poly (pts (xy 0.4572 2.8702) (xy 0.8128 2.8702) (xy 0.8128 1.8542) (xy 0.4572 1.8542)) (layer F.Fab) (width 0))
  (fp_poly (pts (xy 1.7272 2.8702) (xy 2.0828 2.8702) (xy 2.0828 1.8542) (xy 1.7272 1.8542)) (layer F.Fab) (width 0))
  (fp_poly (pts (xy -2.0828 -1.8542) (xy -1.7272 -1.8542) (xy -1.7272 -2.8702) (xy -2.0828 -2.8702)) (layer F.Fab) (width 0))
  (fp_poly (pts (xy -0.8128 -1.8542) (xy -0.4572 -1.8542) (xy -0.4572 -2.8702) (xy -0.8128 -2.8702)) (layer F.Fab) (width 0))
  (fp_poly (pts (xy 0.4572 -1.8542) (xy 0.8128 -1.8542) (xy 0.8128 -2.8702) (xy 0.4572 -2.8702)) (layer F.Fab) (width 0))
  (fp_poly (pts (xy 1.7272 -1.8542) (xy 2.0828 -1.8542) (xy 2.0828 -2.8702) (xy 1.7272 -2.8702)) (layer F.Fab) (width 0))
  (pad "1" smd rect (at -1.905 3.5687) (size 0.6096 2.2098) (layers "F.Cu" "F.Paste" "F.Mask")
    (solder_mask_margin 0.075))
  (pad "8" smd rect (at -1.905 -3.8862) (size 0.6096 2.2098) (layers "F.Cu" "F.Paste" "F.Mask")
    (solder_mask_margin 0.075))
  (pad "2" smd rect (at -0.635 3.5687) (size 0.6096 2.2098) (layers "F.Cu" "F.Paste" "F.Mask")
    (solder_mask_margin 0.075))
  (pad "3" smd rect (at 0.635 3.5687) (size 0.6096 2.2098) (layers "F.Cu" "F.Paste" "F.Mask")
    (solder_mask_margin 0.075))
  (pad "7" smd rect (at -0.635 -3.8862) (size 0.6096 2.2098) (layers "F.Cu" "F.Paste" "F.Mask")
    (solder_mask_margin 0.075))
  (pad "6" smd rect (at 0.635 -3.8862) (size 0.6096 2.2098) (layers "F.Cu" "F.Paste" "F.Mask")
    (solder_mask_margin 0.075))
  (pad "4" smd rect (at 1.905 3.5687) (size 0.6096 2.2098) (layers "F.Cu" "F.Paste" "F.Mask")
    (solder_mask_margin 0.075))
  (pad "5" smd rect (at 1.905 -3.8862) (size 0.6096 2.2098) (layers "F.Cu" "F.Paste" "F.Mask")
    (solder_mask_margin 0.075))
)
