(module "SOT23" (layer F.Cu) (tedit 0)
  (descr "<b>SOT-23</b>")
  (fp_text reference "T1" (at -1.905 -1.905) (layer F.SilkS)
    (effects (font (size 1.2065 1.2065) (thickness 0.09652)) (justify left bottom))
  )
  (fp_text value "BC847" (at -1.905 3.175) (layer F.Fab)
    (effects (font (size 1.2065 1.2065) (thickness 0.09652)) (justify left bottom))
  )
  (fp_line (start 1.4224 -0.6604) (end 1.4224 0.6604) (layer F.Fab) (width 0.1524))
  (fp_line (start 1.4224 0.6604) (end -1.4224 0.6604) (layer F.Fab) (width 0.1524))
  (fp_line (start -1.4224 0.6604) (end -1.4224 -0.6604) (layer F.Fab) (width 0.1524))
  (fp_line (start -1.4224 -0.6604) (end 1.4224 -0.6604) (layer F.Fab) (width 0.1524))
  (fp_poly (pts (xy -0.2286 -0.7112) (xy 0.2286 -0.7112) (xy 0.2286 -1.2954) (xy -0.2286 -1.2954)) (layer F.Fab) (width 0))
  (fp_poly (pts (xy 0.7112 1.2954) (xy 1.1684 1.2954) (xy 1.1684 0.7112) (xy 0.7112 0.7112)) (layer F.Fab) (width 0))
  (fp_poly (pts (xy -1.1684 1.2954) (xy -0.7112 1.2954) (xy -0.7112 0.7112) (xy -1.1684 0.7112)) (layer F.Fab) (width 0))
  (pad "3" smd rect (at 0 -1.1) (size 1 1.4) (layers "F.Cu" "F.Paste" "F.Mask")
    (solder_mask_margin 0.075))
  (pad "2" smd rect (at 0.95 1.1) (size 1 1.4) (layers "F.Cu" "F.Paste" "F.Mask")
    (solder_mask_margin 0.075))
  (pad "1" smd rect (at -0.95 1.1) (size 1 1.4) (layers "F.Cu" "F.Paste" "F.Mask")
    (solder_mask_margin 0.075))
)
